 __  __                        __               _                 _                 ____                    _               _          __  __         _          _   _  ___ 
|  \/  |  __ _  _ __   _   _  / _|  __ _   ___ | |_  _   _  _ __ (_) _ __    __ _  |  _ \  _ __   ___    __| | _   _   ___ | |_  ___  |  \/  |  __ _ (_) _ __   | | | ||_ _|
| |\/| | / _` || '_ \ | | | || |_  / _` | / __|| __|| | | || '__|| || '_ \  / _` | | |_) || '__| / _ \  / _` || | | | / __|| __|/ __| | |\/| | / _` || || '_ \  | | | | | | 
| |  | || (_| || | | || |_| ||  _|| (_| || (__ | |_ | |_| || |   | || | | || (_| | |  __/ | |   | (_) || (_| || |_| || (__ | |_ \__ \ | |  | || (_| || || | | | | |_| | | | 
|_|  |_| \__,_||_| |_| \__,_||_|   \__,_| \___| \__| \__,_||_|   |_||_| |_| \__, | |_|    |_|    \___/  \__,_| \__,_| \___| \__||___/ |_|  |_| \__,_||_||_| |_|  \___/ |___|
                                                                            |___/                                                                                           
